<svg width="15" height="14" viewBox="0 0 15 14" fill="none" xmlns="http://www.w3.org/2000/svg">
<path d="M2.89625 5.19666H1.01754C0.758164 5.19666 0.547852 5.40694 0.547852 5.66634V13.1811C0.547852 13.4405 0.758132 13.6508 1.01754 13.6508H2.89622C3.1556 13.6508 3.36591 13.4405 3.36591 13.1811V5.66631C3.36591 5.40694 3.15566 5.19666 2.89625 5.19666Z" fill="#39B081"/>
<path d="M14.6286 6.44174C14.5458 5.71315 13.8652 5.19674 13.1319 5.19674H9.4702C9.78139 4.63952 9.94842 3.0635 9.94101 2.41968C9.92873 1.354 9.0462 0.5 7.98048 0.5H7.59292C7.33333 0.5 7.12323 0.710062 7.12323 0.969687C7.12323 2.05578 6.70033 4.01615 5.90274 4.81377C5.36589 5.35062 4.90696 5.54515 4.30518 5.8459V12.8933C5.22652 13.2004 6.39633 13.6509 8.17936 13.6509H11.2517C12.2641 13.6509 13.0525 12.7133 12.6602 11.7227C13.2579 11.5599 13.6986 11.0117 13.6986 10.3632C13.6986 10.1801 13.6633 10.005 13.5996 9.84395C14.6067 9.56954 14.9774 8.32595 14.2784 7.54511C14.5352 7.25821 14.6768 6.86577 14.6286 6.44174Z" fill="#39B081"/>
</svg>
