<svg version="1.2" baseProfile="tiny-ps" xmlns="http://www.w3.org/2000/svg" viewBox="0 0 220 217" width="220" height="217">
	<title>task-bg-3-svg</title>
	<style>
		tspan { white-space:pre }
		.shp0 { fill: #65a18d } 
		.shp1 { fill: #ffdc64 } 
		.shp2 { fill: #6fb5bf } 
		.shp3 { fill: #81a6d3 } 
		.shp4 { fill: #b381d3 } 
		.shp5 { fill: #d381a8 } 
	</style>
	<path id="Layer" class="shp0" d="M36.28 104.24L13.19 117.57L-0.15 94.48L22.95 81.14L36.28 104.24Z" />
	<path id="Layer" class="shp1" d="M129.73 93.81L117.26 101.01L110.06 88.54L122.53 81.34L129.73 93.81Z" />
	<path id="Layer" class="shp2" d="M65.91 147.2L53.69 168.36L32.52 156.14L44.74 134.98L65.91 147.2Z" />
	<path id="Layer" class="shp2" d="M169.94 28.17L142.64 58.25L112.56 30.95L139.86 0.87L169.94 28.17Z" />
	<path id="Layer" class="shp3" d="M219.18 123.46L197.88 160.34L161 139.05L182.3 102.16L219.18 123.46Z" />
	<path id="Layer" class="shp3" d="M57.52 16.33L50.12 29.15L37.29 21.75L44.7 8.92L57.52 16.33Z" />
	<path id="Layer" class="shp4" d="M114.03 207.01L97.62 216.49L88.14 200.08L104.56 190.6L114.03 207.01Z" />
	<path id="Layer" class="shp4" d="M86.52 86.71L75.66 92.97L69.4 82.12L80.25 75.85L86.52 86.71Z" />
	<path id="Layer" class="shp5" d="M136.54 152.82L108.29 160.39L100.72 132.14L128.97 124.57L136.54 152.82Z" />
</svg>