<svg version="1.2" baseProfile="tiny-ps" xmlns="http://www.w3.org/2000/svg" viewBox="0 0 220 220" width="220" height="220">
	<title>task-bg-2-svg</title>
	<style>
		tspan { white-space:pre }
		.shp0 { fill: #65a18d } 
		.shp1 { fill: #ffdc64 } 
		.shp2 { fill: #6fb5bf } 
		.shp3 { fill: #81a6d3 } 
		.shp4 { fill: #b381d3 } 
		.shp5 { fill: #d381a8 } 
	</style>
	<path id="Layer" class="shp0" d="M127.15 182.1L146.01 200.96L127.15 219.82L108.3 200.96L127.15 182.1Z" />
	<path id="Layer" class="shp1" d="M92.89 94.54L103.08 104.72L92.89 114.91L82.71 104.72L92.89 94.54Z" />
	<path id="Layer" class="shp2" d="M160.98 142.37L184.59 148.7L178.26 172.3L154.66 165.98L160.98 142.37Z" />
	<path id="Layer" class="shp2" d="M19.08 72.69L55.2 91.28L36.62 127.39L0.5 108.81L19.08 72.69Z" />
	<path id="Layer" class="shp3" d="M98.38 0.46L139.52 11.49L128.5 52.63L87.36 41.6L98.38 0.46Z" />
	<path id="Layer" class="shp3" d="M36.74 184.34L51.05 188.17L47.21 202.48L32.91 198.65L36.74 184.34Z" />
	<path id="Layer" class="shp4" d="M206.3 80.4L219.71 93.8L206.3 107.21L192.9 93.8L206.3 80.4Z" />
	<path id="Layer" class="shp4" d="M97.22 138.12L106.08 146.98L97.22 155.84L88.36 146.98L97.22 138.12Z" />
	<path id="Layer" class="shp5" d="M148.13 72.69L162.75 98.01L137.43 112.64L122.81 87.31L148.13 72.69Z" />
</svg>