<svg width="1077" height="47" viewBox="0 0 1077 47" fill="none" xmlns="http://www.w3.org/2000/svg">
<path d="M45.8633 1L0.863281 46" stroke="black"/>
<path d="M394.25 1L349.25 46" stroke="black"/>
<path d="M742.638 1L697.638 46" stroke="black"/>
<path d="M220.057 1L175.057 46" stroke="black"/>
<path d="M568.444 1L523.444 46" stroke="black"/>
<path d="M916.831 1L871.831 46" stroke="black"/>
<path d="M132.96 1L87.96 46" stroke="black"/>
<path d="M481.347 1L436.347 46" stroke="black"/>
<path d="M829.734 1L784.734 46" stroke="black"/>
<path d="M307.154 1L262.154 46" stroke="black"/>
<path d="M655.541 1L610.541 46" stroke="black"/>
<path d="M1003.93 1L958.928 46" stroke="black"/>
<path d="M89.4116 1L44.4116 46" stroke="black"/>
<path d="M437.799 1L392.799 46" stroke="black"/>
<path d="M786.186 1L741.186 46" stroke="black"/>
<path d="M263.605 1L218.605 46" stroke="black"/>
<path d="M611.992 1L566.992 46" stroke="black"/>
<path d="M960.379 1L915.379 46" stroke="black"/>
<path d="M176.508 1L131.508 46" stroke="black"/>
<path d="M524.896 1L479.896 46" stroke="black"/>
<path d="M873.283 1L828.283 46" stroke="black"/>
<path d="M350.702 1L305.702 46" stroke="black"/>
<path d="M699.089 1L654.089 46" stroke="black"/>
<path d="M1047.48 1L1002.48 46" stroke="black"/>
<path d="M60.3794 1L15.3794 46" stroke="black"/>
<path d="M408.767 1L363.767 46" stroke="black"/>
<path d="M757.154 1L712.154 46" stroke="black"/>
<path d="M234.573 1L189.573 46" stroke="black"/>
<path d="M582.96 1L537.96 46" stroke="black"/>
<path d="M931.347 1L886.347 46" stroke="black"/>
<path d="M147.476 1L102.476 46" stroke="black"/>
<path d="M495.863 1L450.863 46" stroke="black"/>
<path d="M844.25 1L799.25 46" stroke="black"/>
<path d="M321.67 1L276.67 46" stroke="black"/>
<path d="M670.057 1L625.057 46" stroke="black"/>
<path d="M1018.44 1L973.444 46" stroke="black"/>
<path d="M103.928 1L58.9277 46" stroke="black"/>
<path d="M452.315 1L407.315 46" stroke="black"/>
<path d="M800.702 1L755.702 46" stroke="black"/>
<path d="M278.122 1L233.122 46" stroke="black"/>
<path d="M626.508 1L581.508 46" stroke="black"/>
<path d="M974.896 1L929.896 46" stroke="black"/>
<path d="M191.024 1L146.024 46" stroke="black"/>
<path d="M539.412 1L494.412 46" stroke="black"/>
<path d="M887.799 1L842.799 46" stroke="black"/>
<path d="M365.218 1L320.218 46" stroke="black"/>
<path d="M713.605 1L668.605 46" stroke="black"/>
<path d="M1061.99 1L1016.99 46" stroke="black"/>
<path d="M74.8955 1L29.8955 46" stroke="black"/>
<path d="M423.283 1L378.283 46" stroke="black"/>
<path d="M771.67 1L726.67 46" stroke="black"/>
<path d="M249.089 1L204.089 46" stroke="black"/>
<path d="M597.476 1L552.476 46" stroke="black"/>
<path d="M945.863 1L900.863 46" stroke="black"/>
<path d="M161.992 1L116.992 46" stroke="black"/>
<path d="M510.379 1L465.379 46" stroke="black"/>
<path d="M858.767 1L813.767 46" stroke="black"/>
<path d="M336.186 1L291.186 46" stroke="black"/>
<path d="M684.573 1L639.573 46" stroke="black"/>
<path d="M1032.96 1L987.96 46" stroke="black"/>
<path d="M118.444 1L73.4438 46" stroke="black"/>
<path d="M466.831 1L421.831 46" stroke="black"/>
<path d="M815.218 1L770.218 46" stroke="black"/>
<path d="M292.638 1L247.638 46" stroke="black"/>
<path d="M641.024 1L596.024 46" stroke="black"/>
<path d="M989.412 1L944.412 46" stroke="black"/>
<path d="M205.541 1L160.541 46" stroke="black"/>
<path d="M553.928 1L508.928 46" stroke="black"/>
<path d="M902.315 1L857.315 46" stroke="black"/>
<path d="M379.734 1L334.734 46" stroke="black"/>
<path d="M728.121 1L683.121 46" stroke="black"/>
<path d="M1076.51 1L1031.51 46" stroke="black"/>
</svg>
