<svg width="129" height="45" viewBox="0 0 129 45" fill="none" xmlns="http://www.w3.org/2000/svg">
<path d="M104.676 35.9505C104.676 36.4541 104.534 37.2857 104.249 38.4453C103.997 39.4525 103.798 40.135 103.652 40.4928C103.48 40.897 103.311 41.3045 103.146 41.7153C102.814 42.4309 102.47 42.9909 102.112 43.3951C101.615 43.9583 101.095 44.2399 100.552 44.2399C100.161 44.2399 99.7432 44.0312 99.2993 43.6137C98.8156 43.1565 98.5737 42.6827 98.5737 42.1924C98.5737 42.0996 98.693 41.9539 98.9315 41.7551C99.0707 41.6424 99.1932 41.5762 99.2993 41.5563C99.3721 41.543 99.5278 41.7849 99.7664 42.2819C100.012 42.7855 100.33 43.0372 100.72 43.0372C101.019 43.0372 101.287 42.8683 101.526 42.5303C101.704 42.2719 101.89 41.8677 102.082 41.3177C102.241 40.834 102.4 40.347 102.559 39.8567L102.837 38.9721C102.407 39.5287 101.953 39.9461 101.476 40.2244C101.045 40.4762 100.621 40.6021 100.204 40.6021C99.9254 40.6021 99.7001 40.4696 99.5278 40.2045C99.402 40.0124 99.339 39.8401 99.339 39.6877C99.339 39.5552 99.4185 39.2868 99.5775 38.8826C99.7432 38.4718 99.9254 38.1073 100.124 37.7893C100.508 37.1929 101.072 36.633 101.814 36.1095C102.49 35.6324 102.983 35.3939 103.295 35.3939C103.374 35.3939 103.444 35.4469 103.503 35.5529C103.57 35.6523 103.609 35.7616 103.623 35.8809C103.788 35.8014 103.914 35.7418 104 35.702C104.173 35.6225 104.279 35.5827 104.318 35.5827C104.457 35.5827 104.544 35.5993 104.577 35.6324C104.643 35.6921 104.676 35.7981 104.676 35.9505ZM103.175 36.7059C102.791 36.7059 102.264 37.0438 101.595 37.7197C100.979 38.3426 100.671 38.7368 100.671 38.9025C100.671 39.1211 100.74 39.2305 100.88 39.2305C101.264 39.2305 101.721 38.8892 102.251 38.2067C102.655 37.6899 102.963 37.1896 103.175 36.7059Z" fill="black"/>
<path d="M106.811 40.2344C106.334 40.5193 106 40.6982 105.808 40.7711C105.622 40.844 105.367 40.8804 105.042 40.8804C104.936 40.8804 104.83 40.8274 104.724 40.7214C104.618 40.6154 104.565 40.5027 104.565 40.3834C104.565 40.2112 104.658 39.7506 104.844 39.0019C105.029 38.2465 105.228 37.5176 105.44 36.8152C105.844 35.4502 106.112 34.5689 106.245 34.1714C106.603 33.1112 106.854 32.5811 107 32.5811C107.133 32.5811 107.282 32.6175 107.447 32.6904C107.613 32.7633 107.696 32.8428 107.696 32.9289C107.709 33.0416 107.491 33.7705 107.04 35.1156C106.762 35.9439 106.58 36.517 106.493 36.8351C106.354 37.3321 106.252 37.6866 106.185 37.8986C106.026 38.4155 105.871 38.929 105.718 39.4392C105.957 39.3332 106.199 39.2239 106.444 39.1112C107 38.866 107.348 38.7435 107.487 38.7435C107.58 38.7435 107.676 38.8163 107.775 38.9621C107.881 39.1013 107.934 39.2205 107.934 39.3199C107.921 39.4326 107.742 39.6115 107.398 39.8567C107.239 39.9693 107.043 40.0952 106.811 40.2344Z" fill="black"/>
<path d="M114.1 36.1493C113.776 36.2222 113.434 36.3083 113.077 36.4077C113.01 36.4276 112.699 36.5203 112.142 36.686C112.202 36.7721 112.265 36.855 112.331 36.9345C112.378 37.0206 112.401 37.1929 112.401 37.4513C112.401 38.0742 112.232 38.6606 111.894 39.2106C111.629 39.6347 111.241 40.0654 110.731 40.5027C110.506 40.6882 110.29 40.8175 110.085 40.8904C109.88 40.9632 109.601 40.9997 109.25 40.9997C108.899 40.9997 108.604 40.9169 108.366 40.7512C108.054 40.5325 107.899 40.1979 107.899 39.7473C107.899 39.2835 107.998 38.7832 108.197 38.2465C108.349 37.829 108.521 37.4812 108.714 37.2029C109.157 36.5734 109.528 36.136 109.827 35.8909C110.039 35.7119 110.234 35.6225 110.413 35.6225C110.506 35.6225 110.595 35.6623 110.681 35.7418C110.774 35.8147 110.821 35.9041 110.821 36.0101C110.821 36.2023 110.681 36.5005 110.403 36.9047C110.125 37.3089 109.85 37.7031 109.578 38.0875C109.287 38.5579 109.141 38.9389 109.141 39.2305C109.141 39.3763 109.184 39.4988 109.27 39.5982C109.356 39.6976 109.485 39.7473 109.658 39.7473C110.049 39.7473 110.4 39.5055 110.711 39.0218C110.996 38.5778 111.139 38.1272 111.139 37.67C111.139 37.5574 111.115 37.4083 111.069 37.2227C110.963 36.7987 110.91 36.527 110.91 36.4077C110.91 36.0764 111.377 35.8047 112.311 35.5927C113.02 35.4336 113.64 35.3541 114.17 35.3541C114.302 35.3541 114.422 35.3773 114.528 35.4237C114.64 35.4701 114.697 35.5264 114.697 35.5927C114.697 35.7318 114.627 35.8577 114.488 35.9704C114.375 36.0631 114.246 36.1228 114.1 36.1493Z" fill="black"/>
<path d="M113.853 39.2504C114.005 39.3299 114.171 39.4127 114.35 39.4988C114.528 39.5784 114.691 39.6181 114.837 39.6181C115.254 39.6181 115.608 39.4491 115.9 39.1112C116.191 38.7733 116.337 38.3658 116.337 37.8887C116.337 37.6965 116.307 37.5607 116.248 37.4812C116.188 37.4016 116.066 37.3619 115.88 37.3619C115.728 37.3619 115.545 37.4215 115.333 37.5408C115.128 37.6534 114.926 37.8092 114.727 38.0079C114.621 38.1073 114.479 38.2929 114.3 38.5645C114.147 38.7965 113.998 39.0251 113.853 39.2504ZM113.018 39.5784C112.912 39.4591 112.859 39.3464 112.859 39.2404C112.958 38.9091 113.061 38.5745 113.167 38.2365C113.458 37.3089 113.684 36.6065 113.843 36.1294C114.128 35.2945 114.356 34.6849 114.528 34.3006C114.628 33.9626 114.714 33.7108 114.787 33.5452C115.012 33.0416 115.257 32.7898 115.522 32.7898C115.655 32.7898 115.774 32.8395 115.88 32.9389C115.986 33.0383 116.039 33.1509 116.039 33.2768C116.039 33.3166 115.867 33.7903 115.522 34.6981C115.158 35.6523 114.893 36.3116 114.727 36.6761C115.039 36.411 115.35 36.2189 115.661 36.0996C115.973 35.9737 116.288 35.9107 116.606 35.9107C116.864 35.9107 117.089 36.0267 117.281 36.2586C117.533 36.5634 117.659 36.9941 117.659 37.5507C117.659 37.9549 117.57 38.3856 117.391 38.8428C117.152 39.4458 116.824 39.9196 116.407 40.2642C115.864 40.7081 115.194 40.9301 114.399 40.9301C114.041 40.9301 113.664 40.8274 113.266 40.622C112.875 40.4166 112.68 40.231 112.68 40.0654C112.68 39.9991 112.72 39.9163 112.799 39.8169C112.905 39.7043 112.978 39.6247 113.018 39.5784Z" fill="black"/>
<path d="M125.006 38.7832C125.006 39.0151 124.91 39.2272 124.718 39.4193C124.307 39.8036 123.728 40.1582 122.979 40.4828C122.363 40.7479 121.968 40.8804 121.796 40.8804C121.611 40.8804 121.458 40.8108 121.339 40.6717C121.22 40.5259 121.16 40.3669 121.16 40.1946C121.16 39.9958 121.16 39.7904 121.16 39.5784C121.167 39.3663 121.193 39.1377 121.24 38.8925C120.709 39.3564 120.418 39.6115 120.365 39.6579C119.583 40.3072 118.99 40.6319 118.586 40.6319C118.341 40.6319 118.125 40.5458 117.94 40.3735C117.754 40.2012 117.662 40.019 117.662 39.8268C117.662 39.5485 117.897 39.0483 118.367 38.326C118.838 37.6037 119.358 36.9643 119.928 36.4077C120.59 35.7583 121.127 35.4336 121.538 35.4336C121.617 35.4336 121.71 35.4867 121.816 35.5927C121.922 35.6921 122.005 35.8014 122.064 35.9207C122.144 35.8014 122.2 35.7119 122.233 35.6523C122.306 35.5397 122.392 35.4833 122.492 35.4833C122.604 35.4833 122.74 35.533 122.899 35.6324C123.065 35.7252 123.148 35.8378 123.148 35.9704C123.148 36.2023 123.088 36.5303 122.969 36.9544C122.85 37.3784 122.73 37.7992 122.611 38.2167C122.558 38.4221 122.515 38.6142 122.482 38.7931C122.449 38.9654 122.432 39.1079 122.432 39.2205C122.432 39.3398 122.455 39.3994 122.502 39.3994C122.601 39.3994 122.926 39.2404 123.476 38.9224C124.032 38.5977 124.407 38.4353 124.599 38.4353C124.87 38.4353 125.006 38.5513 125.006 38.7832ZM120.822 37.8489C120.849 37.7959 120.862 37.723 120.862 37.6302C120.862 37.4646 120.812 37.3818 120.713 37.3818C120.454 37.3818 120.183 37.5474 119.898 37.8787C119.692 38.1173 119.407 38.5447 119.043 39.1609C119.606 38.9025 120.034 38.6606 120.325 38.4353C120.557 38.2564 120.723 38.0609 120.822 37.8489Z" fill="black"/>
<path d="M126.786 40.2344C126.309 40.5193 125.974 40.6982 125.782 40.7711C125.597 40.844 125.341 40.8804 125.017 40.8804C124.911 40.8804 124.805 40.8274 124.699 40.7214C124.593 40.6154 124.54 40.5027 124.54 40.3834C124.54 40.2112 124.632 39.7506 124.818 39.0019C125.004 38.2465 125.202 37.5176 125.414 36.8152C125.818 35.4502 126.087 34.5689 126.219 34.1714C126.577 33.1112 126.829 32.5811 126.975 32.5811C127.107 32.5811 127.256 32.6175 127.422 32.6904C127.588 32.7633 127.67 32.8428 127.67 32.9289C127.684 33.0416 127.465 33.7705 127.014 35.1156C126.736 35.9439 126.554 36.517 126.468 36.8351C126.329 37.3321 126.226 37.6866 126.16 37.8986C126.001 38.4155 125.845 38.929 125.693 39.4392C125.931 39.3332 126.173 39.2239 126.418 39.1112C126.975 38.866 127.323 38.7435 127.462 38.7435C127.554 38.7435 127.651 38.8163 127.75 38.9621C127.856 39.1013 127.909 39.2205 127.909 39.3199C127.896 39.4326 127.717 39.6115 127.372 39.8567C127.213 39.9693 127.018 40.0952 126.786 40.2344Z" fill="black"/>
<path fill-rule="evenodd" clip-rule="evenodd" d="M58.2084 23.777L53.478 33.6217L46.3043 26.8731C45.787 26.1119 44.7064 26.0101 44.0566 26.6613L39.0186 33.035L33.2212 23.1704C32.6563 22.559 31.6975 22.5406 31.1096 23.1298L26.9461 25.5894L25.4177 24.0577C24.8453 23.4842 23.9173 23.4842 23.345 24.0577L19.9649 27.4448H2.35156C1.59271 27.4448 0.977539 28.0613 0.977539 28.8217C0.977539 29.5822 1.59271 30.1986 2.35156 30.1986H20.4961C20.8848 30.1986 21.2576 30.0439 21.5325 29.7685L24.3813 26.9137L25.9098 28.4453C26.4822 29.0189 27.4101 29.0189 27.9825 28.4453L32.1105 26.0213L37.9078 35.8859C38.4728 36.4972 39.4315 36.5156 40.0195 35.9264L44.9048 29.7058L52.9559 37.6782C53.5944 38.6177 55.0102 38.5054 55.4933 37.477L61.3469 22.2324C59.0197 22.6421 58.2084 23.777 58.2084 23.777Z" fill="black"/>
<path d="M80.6593 23.1704L84.8174 33.0375C85.1783 34.0542 86.4733 34.3468 87.2346 33.5838L91.2902 29.5198L95.3835 33.6217C95.9559 34.1952 96.8838 34.1952 97.4561 33.6217L105.076 25.9857L107.604 28.5193C107.879 28.7947 108.252 28.9494 108.641 28.9494L127.551 28.9495C128.31 28.9495 128.925 28.333 128.925 27.5726C128.925 26.8121 128.31 26.1957 127.551 26.1957L109.172 26.1956L106.112 23.1298C105.54 22.5562 104.612 22.5563 104.04 23.1298L96.4198 30.7657L92.3266 26.6638C91.7542 26.0903 90.8262 26.0903 90.2539 26.6638L86.7265 30.1986L83.1198 21.1501C83.1198 21.1501 82.2681 22.3804 80.6593 23.1704Z" fill="black"/>
<path d="M59.9567 17.9224C60.0071 17.8143 60.095 17.7281 60.2041 17.6797L65.8291 15.187C66.1182 15.0588 66.6074 15.1377 66.669 15.4479C66.669 15.4479 66.7423 16.3007 66.8575 16.8352C66.9755 17.3831 67.2697 18.2098 67.2697 18.2098C67.3146 18.4357 66.9736 18.6753 66.7634 18.7693L58.8715 22.3007C58.4544 22.4873 58.0295 22.0557 58.2226 21.6415L59.9567 17.9224Z" fill="#F32023"/>
<path d="M62.37 12.5364C62.4204 12.4282 62.5083 12.342 62.6174 12.2937L65.0634 11.2097C65.3525 11.0816 65.8043 11.164 65.8659 11.4742C65.8659 11.4742 66.116 12.2716 66.2262 12.7636C66.3528 13.3289 66.3628 14.1482 66.3628 14.1482C66.4076 14.3738 66.2083 14.6982 65.9986 14.7924L61.2872 16.9109C60.87 17.0985 60.4441 16.6667 60.6374 16.2521L62.37 12.5364Z" fill="#444E9A"/>
<path d="M64.2597 8.37295C64.4613 7.94054 64.9087 8.09278 65.0017 8.56074L65.361 9.31809L65.5506 10.2942C65.5952 10.5188 65.4796 10.7445 65.2714 10.8395L63.7433 11.5367C63.3259 11.7272 62.8972 11.2949 63.0911 10.8791L64.2597 8.37295Z" fill="#F2F2F2"/>
<path d="M71.8449 13.3138C72.4389 12.86 72.6526 12.2781 72.4861 11.5683C72.4438 11.2636 72.2694 11.0799 71.9628 11.017C71.6562 10.9541 71.2677 10.9778 70.7975 11.0881L69.6656 11.4884C69.6672 11.3083 69.6329 11.0692 69.563 10.7711C69.5131 10.5581 69.4155 10.2665 69.2702 9.89611C69.125 9.52577 69.0224 9.21282 68.9624 8.95727L68.7826 8.19063C68.6094 7.45238 68.4154 6.93621 68.2005 6.64212C67.897 6.21904 67.4478 6.07725 66.8531 6.21676C66.3966 6.32382 65.9822 6.76553 65.6098 7.54189L66.4556 10.9608C66.5847 11.2001 66.7094 11.5453 66.8298 11.9963C66.9469 12.4332 67.0376 12.7265 67.1019 12.8762L67.6298 15.3136C67.813 16.0944 67.9506 16.9609 68.0425 17.9129C68.217 19.7143 68.3076 20.6292 68.3143 20.6576C68.4375 21.1829 68.5758 21.5548 68.7292 21.7735C68.9951 22.1604 69.3908 22.2923 69.9164 22.169C70.8016 21.9614 70.8126 21.5552 71.1653 20.2592C71.5179 18.9632 71.0885 17.7479 70.7581 16.3323C70.5619 15.4917 70.3158 14.1668 70.3158 14.1668L71.8449 13.3138Z" fill="black"/>
<path d="M35.0518 3.71297C35.0518 4.67309 34.5793 5.33431 33.6343 5.69662C32.9619 5.95024 31.8897 6.07704 30.4176 6.07704C29.4908 6.07704 28.4368 6.15856 27.2555 6.3216C26.5649 6.4303 25.8743 6.53899 25.1838 6.64768C24.7658 8.02446 24.3569 9.40125 23.9571 10.778C24.1751 10.778 25.0111 10.6784 26.465 10.4791C27.937 10.2617 28.9274 10.153 29.4363 10.153C29.927 10.153 30.3268 10.1893 30.6357 10.2617C30.9447 10.3161 31.0991 10.5788 31.0991 11.0498C31.0991 12.2635 29.727 13.1512 26.9829 13.7127C26.1469 13.8939 24.8476 14.0751 23.0848 14.2562L21.749 18.1148C22.2215 17.988 23.3392 17.7797 25.102 17.4898C26.8648 17.1819 27.9188 17.0279 28.2641 17.0279C29.2091 17.0279 29.8361 17.1094 30.145 17.2724C30.5812 17.5079 30.7993 17.9971 30.7993 18.7398C30.7993 19.555 30.5812 20.1438 30.145 20.5061C29.8179 20.7778 29.3818 20.9137 28.8366 20.9137C28.5821 20.9137 28.3641 20.9046 28.1823 20.8865C28.0188 20.8503 27.8825 20.814 27.7734 20.7778C26.7012 20.7778 25.3746 20.9318 23.7935 21.2397C22.2306 21.5477 20.6859 21.8647 19.1594 22.1908C18.7414 22.1908 18.3779 22.0368 18.069 21.7289C17.7782 21.439 17.6328 21.1311 17.6328 20.805C17.6692 20.5514 18.2144 18.6583 19.2684 15.1258C20.0135 12.6439 20.4678 11.1041 20.6314 10.5063C20.8131 9.90848 21.0221 9.31972 21.2584 8.74003C21.5128 8.14221 21.8036 7.55346 22.1307 6.97376C21.7309 6.97376 21.4128 6.9013 21.1766 6.75638C20.8313 6.55711 20.695 6.2582 20.7677 5.85966C20.9131 5.08069 21.9853 4.41042 23.9843 3.84883C25.9834 3.28725 28.4458 3.00646 31.3717 3.00646C32.0623 3.00646 32.762 3.00646 33.4707 3.00646C34.5248 3.04269 35.0518 3.27819 35.0518 3.71297Z" fill="black"/>
<path d="M46.0762 19.7996C46.0762 20.1619 45.8218 20.6057 45.3129 21.1311C44.8041 21.6564 44.3498 21.9191 43.95 21.9191C43.3866 21.9191 42.8777 21.756 42.4234 21.43C41.9691 21.0858 41.5784 20.66 41.2512 20.1528C40.9423 19.6275 40.706 19.1293 40.5425 18.6583C40.3789 18.1692 40.2245 17.517 40.0791 16.7018C38.4071 18.6039 37.3168 19.7633 36.8079 20.18C35.4449 21.3394 34.0456 21.9191 32.6099 21.9191C32.2101 21.9191 31.8285 21.7742 31.465 21.4843C31.1197 21.1763 30.9471 20.8321 30.9471 20.4517C30.9471 20.0169 31.0288 19.3557 31.1924 18.4681C31.2287 18.305 31.5286 16.9282 32.092 14.3377C32.5826 12.2726 33.1006 10.7327 33.6458 9.71827C34.3364 8.43206 35.136 7.78896 36.0446 7.78896C36.2809 7.78896 36.5081 7.89766 36.7261 8.11504C36.9624 8.31431 37.0805 8.50453 37.0805 8.68568C37.0805 9.13857 36.9624 9.69109 36.7261 10.3433C36.4899 10.9954 36.2627 11.6113 36.0446 12.191C35.7357 13.0968 35.5085 13.7943 35.3631 14.2834C35.0905 15.2073 34.9542 15.8413 34.9542 16.1855C34.9542 16.5841 34.9724 16.8467 35.0088 16.9735C35.0633 17.0822 35.245 17.1366 35.554 17.1366C35.9174 17.1366 36.399 16.8648 36.9987 16.3214C37.0714 16.2489 38.1345 15.0986 40.1881 12.8704C40.6424 11.1856 41.2422 9.96283 41.9873 9.20197C42.5325 8.64039 43.1231 8.3596 43.7591 8.3596C44.1226 8.3596 44.3952 8.47735 44.5769 8.71285C44.7587 8.93024 44.8495 9.2382 44.8495 9.63675C44.8495 9.90848 44.5951 11.0226 44.0863 12.9791C43.8318 13.9573 43.7046 14.7725 43.7046 15.4247C43.7046 16.2217 43.95 16.9917 44.4406 17.7344C44.9858 18.4228 45.531 19.1112 46.0762 19.7996Z" fill="black"/>
<path d="M55.8874 12.4084C54.4699 13.3504 53.1887 14.4645 52.0438 15.7507C51.6803 16.1855 51.335 16.9192 51.0079 17.9518C50.7716 18.7126 50.599 19.4916 50.4899 20.2887C50.3809 21.0676 49.6903 21.4571 48.4182 21.4571C47.8367 21.4571 47.4096 21.1945 47.137 20.6691C46.9553 20.3249 46.8644 19.9264 46.8644 19.4735C47.4096 17.8793 47.9003 16.4301 48.3364 15.1258C48.7908 13.8033 49.0179 12.6711 49.0179 11.7291C49.0179 11.5479 48.9998 11.3124 48.9634 11.0226C48.9271 10.7327 48.9089 10.5154 48.9089 10.3704C48.9089 10.2255 48.9089 10.0806 48.9089 9.93565C48.9634 9.77261 48.9998 9.66392 49.0179 9.60957C49.1997 9.01176 49.4723 8.47735 49.8357 8.00635C50.1992 7.53534 50.5717 7.29984 50.9534 7.29984C51.2987 7.29984 51.6167 7.44477 51.9075 7.73461C52.2164 8.00635 52.3709 8.36866 52.3709 8.82155C52.3709 10.0752 52.1005 11.1682 51.8257 12.3813C53.116 11.1675 54.27 10.1712 55.2877 9.39219C56.0637 8.7905 59.7449 4.74 59.7449 8.25096C59.7449 10.9246 57.787 11.1633 55.8874 12.4084Z" fill="black"/>
<path d="M83.4295 11.5118C83.2478 11.5118 83.066 11.4212 82.8843 11.24C82.7026 11.0589 82.6117 10.8868 82.6117 10.7237C82.6117 10.6332 82.639 10.5154 82.6935 10.3705C82.748 10.2256 82.7753 10.1169 82.7753 10.0444C82.7753 9.86324 82.6753 9.77266 82.4754 9.77266C82.1483 9.77266 81.8303 9.96288 81.5213 10.3433C81.2306 10.7237 81.0852 11.1585 81.0852 11.6476C81.0852 11.9194 81.167 12.182 81.3305 12.4356C81.4941 12.6893 81.6576 12.9429 81.8212 13.1965C81.9302 13.4139 82.321 14.1204 82.9934 15.316C83.4295 16.0769 83.6476 16.6022 83.6476 16.8921C83.6476 17.7073 83.0388 18.7127 81.8212 19.9083C80.2583 21.43 78.4228 22.1909 76.3147 22.1909C75.4242 22.1909 74.8064 22.1365 74.4611 22.0278C73.8614 21.8467 73.5615 21.4662 73.5615 20.8865C73.5615 20.0895 74.1158 19.5007 75.2243 19.1203C75.9694 18.8667 76.8236 18.7399 77.7868 18.7399C78.2956 18.7399 78.7318 18.6221 79.0952 18.3866C79.4769 18.133 79.6677 17.8794 79.6677 17.6257C79.6858 17.4627 79.386 16.7924 78.7681 15.6149C78.1684 14.4374 77.8685 13.5588 77.8685 12.9791C77.8685 11.5842 78.7227 10.0444 80.4309 8.35965C82.2483 6.56621 84.0656 5.6695 85.8829 5.6695C86.21 5.6695 86.5644 5.82348 86.946 6.13144C87.3277 6.4394 87.5185 6.77454 87.5185 7.13685C87.5185 7.58974 87.2822 8.12415 86.8097 8.74008C86.3554 9.35601 85.792 9.95382 85.1196 10.5335C84.6653 10.9321 84.3927 11.1585 84.3018 11.2128C83.9747 11.4302 83.6839 11.5299 83.4295 11.5118Z" fill="black"/>
<path d="M94.4201 2.78913C94.4201 3.11521 94.1657 3.59527 93.6568 4.22931C93.1661 4.86335 92.7663 5.18038 92.4574 5.18038C92.2211 5.18038 91.7577 4.9177 91.0671 4.39235C90.2675 3.79454 89.8677 3.2873 89.8677 2.87065C89.8677 2.67137 90.0949 2.24566 90.5492 1.5935C91.0944 0.814533 91.5851 0.425049 92.0212 0.425049C92.5119 0.425049 93.0298 0.687724 93.575 1.21307C94.1384 1.72031 94.4201 2.24566 94.4201 2.78913ZM91.9667 9.25637C91.9667 9.81795 91.6669 10.9321 91.0671 12.5987C90.8672 13.1422 90.5674 13.9211 90.1676 14.9356C90.1494 15.0262 90.1403 15.153 90.1403 15.316C90.1403 15.624 90.213 16.0135 90.3584 16.4845C90.5219 16.9374 90.6037 17.2363 90.6037 17.3812C90.6037 17.7073 90.4674 18.1783 90.1948 18.7942C89.4861 20.3884 88.5683 21.1854 87.4416 21.1854C86.8782 21.1854 86.4875 20.9137 86.2694 20.3703C86.124 20.0079 86.0514 19.4826 86.0514 18.7942C86.0514 18.3051 86.2876 17.191 86.7601 15.4519C87.3053 13.4773 87.9141 11.7654 88.5865 10.3161C89.4225 8.52269 90.2039 7.62597 90.9308 7.62597C91.2761 7.62597 91.5305 7.77995 91.6941 8.08792C91.8758 8.39588 91.9667 8.78537 91.9667 9.25637Z" fill="black"/>
<path d="M112.921 16.0769C112.921 16.7109 112.658 17.2906 112.131 17.816C111.004 18.8667 109.414 19.8358 107.36 20.7235C105.67 21.4481 104.589 21.8104 104.116 21.8104C103.607 21.8104 103.189 21.6202 102.862 21.2398C102.535 20.8413 102.372 20.4065 102.372 19.9355C102.372 19.392 102.372 18.8304 102.372 18.2507C102.39 17.671 102.462 17.0461 102.59 16.3758C101.136 17.6439 100.336 18.3413 100.191 18.4681C98.0464 20.2434 96.4199 21.1311 95.3113 21.1311C94.6389 21.1311 94.0483 20.8956 93.5395 20.4246C93.0306 19.9536 92.7762 19.4554 92.7762 18.9301C92.7762 18.1692 93.4213 16.8015 94.7116 14.8269C96.0019 12.8523 97.4285 11.1042 98.9914 9.58245C100.809 7.80713 102.281 6.91947 103.407 6.91947C103.626 6.91947 103.88 7.06439 104.171 7.35424C104.462 7.62597 104.689 7.92488 104.852 8.25096C105.07 7.92488 105.225 7.68032 105.316 7.51728C105.516 7.20932 105.752 7.05533 106.024 7.05533C106.333 7.05533 106.706 7.1912 107.142 7.46293C107.596 7.71655 107.824 8.02451 107.824 8.38683C107.824 9.02087 107.66 9.91759 107.333 11.077C107.006 12.2364 106.679 13.3867 106.352 14.528C106.206 15.0896 106.088 15.6149 105.997 16.104C105.906 16.575 105.861 16.9645 105.861 17.2725C105.861 17.5986 105.924 17.7616 106.052 17.7616C106.324 17.7616 107.215 17.3268 108.723 16.4573C110.25 15.5696 111.276 15.1258 111.803 15.1258C112.549 15.1258 112.921 15.4428 112.921 16.0769ZM101.445 13.5226C101.517 13.3777 101.554 13.1784 101.554 12.9248C101.554 12.4719 101.418 12.2454 101.145 12.2454C100.436 12.2454 99.6911 12.6983 98.9096 13.6041C98.3463 14.2563 97.5648 15.4247 96.5653 17.1095C98.11 16.4029 99.2822 15.7417 100.082 15.1258C100.718 14.6367 101.172 14.1023 101.445 13.5226Z" fill="black"/>
</svg>
