<svg width="196" height="48" viewBox="0 0 196 48" fill="none" xmlns="http://www.w3.org/2000/svg">
<path d="M195.733 35.9585H0.504883V47.2804H195.733V35.9585Z" fill="#FAA41A"/>
<path d="M182.605 20.1899V6.0481H186.608V10.1882H190.009C193.558 10.1882 195.85 12.1421 195.85 15.1732C195.871 15.8429 195.752 16.5097 195.499 17.1302C195.246 17.7507 194.865 18.311 194.381 18.7746C193.229 19.7729 191.732 20.2808 190.21 20.1899H182.605ZM186.608 17.1059H189.386C190.949 17.1059 191.857 16.3983 191.857 15.1415C191.857 13.8847 190.949 13.1665 189.386 13.1665H186.608V17.1059Z" fill="#FAA41A"/>
<path d="M156.74 20.1899L162.834 12.649L157.363 6.0481H161.831L166.14 11.3288V6.0481H170.079V11.3288L174.367 6.0481H178.877L173.448 12.649L179.574 20.1899H174.8L170.122 14.1487V20.1899H166.182V14.1487L161.472 20.1899H156.74Z" fill="#FAA41A"/>
<path d="M142.704 18.5214C141.956 17.8367 141.365 16.9976 140.973 16.0621C140.581 15.1266 140.397 14.1171 140.433 13.1034C140.406 12.1311 140.573 11.163 140.924 10.2562C141.276 9.3493 141.806 8.52193 142.482 7.82269C143.165 7.11971 143.988 6.56832 144.898 6.2044C145.807 5.84047 146.784 5.67215 147.763 5.7104C148.693 5.67534 149.619 5.8531 150.47 6.23014C151.321 6.60718 152.075 7.17354 152.674 7.88606C153.903 9.36728 154.556 11.2426 154.512 13.1668V14.2229H144.404C144.827 16.1451 146.643 17.1696 149.146 17.1696C150.74 17.1618 152.304 16.7318 153.677 15.9233V19.0918C152.089 20.1512 150.196 20.6596 148.291 20.5387C146.239 20.6055 144.24 19.8836 142.704 18.5214ZM150.614 11.6565C150.608 11.2742 150.525 10.8971 150.371 10.547C150.217 10.197 149.995 9.88112 149.718 9.61771C149.441 9.35431 149.114 9.14867 148.757 9.01275C148.399 8.87684 148.018 8.81337 147.636 8.82603C146.835 8.78495 146.05 9.05754 145.446 9.58597C144.843 10.1144 144.469 10.8571 144.404 11.6565H150.614Z" fill="#FAA41A"/>
<path d="M136.41 17.5285L131.224 5.91089H128.721L123.356 17.5285H120.938V20.8659H138.755V17.5285H136.41ZM127.158 17.5285L129.925 11.5613L132.597 17.5285H127.158Z" fill="#FAA41A"/>
<path d="M111.644 5.86865C110.182 5.86865 108.752 6.30225 107.537 7.11461C106.321 7.92696 105.373 9.08159 104.814 10.4325C104.254 11.7834 104.108 13.2699 104.393 14.704C104.678 16.1381 105.382 17.4554 106.416 18.4893C107.45 19.5232 108.768 20.2274 110.202 20.5126C111.636 20.7979 113.122 20.6515 114.473 20.0919C115.824 19.5324 116.979 18.5848 117.791 17.369C118.603 16.1532 119.037 14.7239 119.037 13.2617C119.023 11.3052 118.24 9.43277 116.856 8.0493C115.473 6.66582 113.6 5.88248 111.644 5.86865ZM111.644 17.4863C110.818 17.4883 110.01 17.2452 109.322 16.7876C108.635 16.33 108.098 15.6786 107.781 14.9158C107.464 14.1531 107.381 13.3134 107.541 12.5032C107.702 11.693 108.099 10.9487 108.684 10.3646C109.268 9.78054 110.012 9.383 110.822 9.22237C111.632 9.06174 112.472 9.14524 113.235 9.4623C113.998 9.77936 114.649 10.3157 115.107 11.0034C115.564 11.691 115.807 12.499 115.805 13.325C115.8 14.426 115.359 15.4801 114.58 16.2576C113.8 17.0351 112.745 17.4729 111.644 17.4757V17.4863Z" fill="#FAA41A"/>
<path d="M78.2377 5.86865C76.7778 5.87908 75.3536 6.32152 74.1448 7.14019C72.936 7.95886 71.9967 9.11709 71.4452 10.4689C70.8937 11.8207 70.7548 13.3055 71.046 14.7361C71.3372 16.1667 72.0455 17.479 73.0815 18.5077C74.1175 19.5364 75.4348 20.2353 76.8675 20.5163C78.3001 20.7973 79.7839 20.6478 81.1317 20.0867C82.4795 19.5257 83.6311 18.5781 84.4411 17.3635C85.2512 16.1489 85.6834 14.7216 85.6835 13.2617C85.6668 11.2969 84.8753 9.41821 83.481 8.03384C82.0868 6.64947 80.2025 5.87136 78.2377 5.86865ZM78.2377 17.4863C77.4144 17.4758 76.6127 17.2221 75.9334 16.7569C75.2541 16.2917 74.7277 15.636 74.4203 14.8722C74.113 14.1085 74.0385 13.2708 74.2062 12.4648C74.374 11.6588 74.7764 10.9204 75.363 10.3427C75.9495 9.76497 76.6939 9.37371 77.5023 9.21817C78.3108 9.06263 79.1472 9.14978 79.9062 9.46864C80.6653 9.7875 81.313 10.3238 81.7678 11.0101C82.2226 11.6963 82.4643 12.5018 82.4622 13.325C82.4609 13.876 82.3502 14.4212 82.1365 14.929C81.9228 15.4368 81.6104 15.8971 81.2174 16.2832C80.8244 16.6694 80.3586 16.9736 79.8471 17.1783C79.3356 17.383 78.7885 17.4841 78.2377 17.4757V17.4863Z" fill="#FAA41A"/>
<path d="M51.3789 20.1899V6.0481H55.3183L59.4373 11.3288L63.5774 6.0481H67.5168V20.1899H63.7464V11.4239L60.2294 15.828H58.6452L55.1599 11.4239V20.1582L51.3789 20.1899Z" fill="#FAA41A"/>
<path d="M37.1 18.5215C36.3509 17.8306 35.7601 16.9858 35.3682 16.0451C34.9762 15.1045 34.7924 14.0902 34.8293 13.0718C34.7868 12.0667 34.9686 11.0647 35.3613 10.1386C35.7541 9.21245 36.348 8.3853 37.1 7.7171C38.5987 6.36773 40.5546 5.63899 42.5708 5.67874C44.0329 5.64835 45.4811 5.96697 46.7954 6.60816V10.0089C45.6699 9.4709 44.4413 9.18266 43.1939 9.16403C42.0433 9.11025 40.9138 9.48675 40.0255 10.2202C39.6286 10.5805 39.3115 11.0199 39.0944 11.5101C38.8774 12.0003 38.7653 12.5304 38.7653 13.0665C38.7653 13.6026 38.8774 14.1327 39.0944 14.6229C39.3115 15.1131 39.6286 15.5524 40.0255 15.9128C40.9128 16.648 42.043 17.0248 43.1939 16.9689C44.5349 16.9977 45.859 16.6658 47.0278 16.0078V19.4086C45.6465 20.1287 44.1071 20.4918 42.5497 20.4648C40.5509 20.5413 38.5994 19.8454 37.1 18.5215Z" fill="#FAA41A"/>
<path d="M24.5316 5.86865C23.0717 5.87908 21.6476 6.32152 20.4388 7.14019C19.23 7.95886 18.2906 9.11709 17.7391 10.4689C17.1877 11.8207 17.0488 13.3055 17.34 14.7361C17.6312 16.1667 18.3394 17.479 19.3754 18.5077C20.4114 19.5364 21.7288 20.2353 23.1614 20.5163C24.5941 20.7973 26.0778 20.6478 27.4257 20.0867C28.7735 19.5257 29.925 18.5781 30.7351 17.3635C31.5451 16.1489 31.9774 14.7216 31.9774 13.2617C31.9635 11.2961 31.1729 9.41574 29.778 8.03078C28.3832 6.64582 26.4973 5.8686 24.5316 5.86865ZM24.5316 17.4863C23.7056 17.4883 22.8976 17.2452 22.2099 16.7876C21.5223 16.33 20.9859 15.6786 20.6689 14.9158C20.3518 14.1531 20.2683 13.3134 20.4289 12.5032C20.5896 11.693 20.9871 10.9487 21.5712 10.3646C22.1552 9.78054 22.8996 9.383 23.7098 9.22237C24.52 9.06174 25.3597 9.14524 26.1224 9.4623C26.8851 9.77936 27.5366 10.3157 27.9942 11.0034C28.4518 11.691 28.6949 12.499 28.6928 13.325C28.69 14.4268 28.2504 15.4825 27.4703 16.2606C26.6902 17.0387 25.6334 17.4757 24.5316 17.4757V17.4863Z" fill="#FAA41A"/>
<path d="M0.599609 20.1901V0.345094H9.28112C11.1135 0.249851 12.9149 0.845294 14.3295 2.0138C14.92 2.56882 15.3906 3.23889 15.7122 3.98271C16.0339 4.72652 16.1998 5.52832 16.1998 6.33871C16.1998 7.1491 16.0339 7.95091 15.7122 8.69473C15.3906 9.43854 14.92 10.1086 14.3295 10.6636C12.919 11.8405 11.1156 12.4404 9.28112 12.3429H4.68689V20.1901H0.599609ZM4.68689 8.84706H8.99596C10.9498 8.84706 12.1644 7.97046 12.1644 6.38624C12.1644 4.80203 11.0026 3.91486 8.99596 3.91486H4.68689V8.84706Z" fill="#FAA41A"/>
<path d="M90.4248 20.8659L94.7444 11.5613L98.9162 20.8659H102.739L96.0435 5.95312H93.5299L86.6016 20.8659H90.4248Z" fill="#FAA41A"/>
</svg>
